<?xml version="1.0" encoding="UTF-8" standalone="no"?>
<!-- Created with Inkscape (http://www.inkscape.org/) -->

<svg
   xmlns:dc="http://purl.org/dc/elements/1.1/"
   xmlns:cc="http://creativecommons.org/ns#"
   xmlns:rdf="http://www.w3.org/1999/02/22-rdf-syntax-ns#"
   xmlns:svg="http://www.w3.org/2000/svg"
   xmlns="http://www.w3.org/2000/svg"
   xmlns:xlink="http://www.w3.org/1999/xlink"
   xmlns:sodipodi="http://sodipodi.sourceforge.net/DTD/sodipodi-0.dtd"
   xmlns:inkscape="http://www.inkscape.org/namespaces/inkscape"
   sodipodi:docname="logo2.svg"
   inkscape:version="0.92.3 (2405546, 2018-03-11)"
   id="svg8"
   version="1.1"
   viewBox="0 0 210 297"
   height="297mm"
   width="210mm">
  <defs
     id="defs2">
    <marker
       inkscape:stockid="DotL"
       orient="auto"
       refY="0.0"
       refX="0.0"
       id="DotL"
       style="overflow:visible"
       inkscape:isstock="true">
      <path
         id="path954"
         d="M -2.5,-1.0 C -2.5,1.7600000 -4.7400000,4.0 -7.5,4.0 C -10.260000,4.0 -12.5,1.7600000 -12.5,-1.0 C -12.5,-3.7600000 -10.260000,-6.0 -7.5,-6.0 C -4.7400000,-6.0 -2.5,-3.7600000 -2.5,-1.0 z "
         style="fill-rule:evenodd;stroke:#fa0000;stroke-width:1pt;stroke-opacity:1;fill:#fa0000;fill-opacity:1"
         transform="scale(0.8) translate(7.4, 1)" />
    </marker>
    <marker
       inkscape:stockid="DiamondL"
       orient="auto"
       refY="0.0"
       refX="0.0"
       id="DiamondL"
       style="overflow:visible"
       inkscape:isstock="true">
      <path
         id="path972"
         d="M 0,-7.0710768 L -7.0710894,0 L 0,7.0710589 L 7.0710462,0 L 0,-7.0710768 z "
         style="fill-rule:evenodd;stroke:#fa0000;stroke-width:1pt;stroke-opacity:1;fill:#fa0000;fill-opacity:1"
         transform="scale(0.8)" />
    </marker>
  </defs>
  <sodipodi:namedview
     inkscape:snap-midpoints="true"
     inkscape:window-maximized="1"
     inkscape:window-y="0"
     inkscape:window-x="0"
     inkscape:window-height="1303"
     inkscape:window-width="2560"
     showgrid="false"
     inkscape:current-layer="g1252"
     inkscape:document-units="mm"
     inkscape:cy="967.86435"
     inkscape:cx="-1419.2267"
     inkscape:zoom="0.27445306"
     inkscape:pageshadow="2"
     inkscape:pageopacity="0.0"
     borderopacity="1.0"
     bordercolor="#666666"
     pagecolor="#ffffff"
     id="base" />
  <metadata
     id="metadata5">
    <rdf:RDF>
      <cc:Work
         rdf:about="">
        <dc:format>image/svg+xml</dc:format>
        <dc:type
           rdf:resource="http://purl.org/dc/dcmitype/StillImage" />
        <dc:title></dc:title>
      </cc:Work>
    </rdf:RDF>
  </metadata>
  <g
     id="g823"
     inkscape:groupmode="layer"
     inkscape:label="Layer 1 copy"
     style="display:inline">
    <g
       aria-label="L"
       style="font-style:normal;font-variant:normal;font-weight:normal;font-stretch:normal;font-size:439.28158569px;line-height:1.25;font-family:'Learning Curve';-inkscape-font-specification:'Learning Curve';letter-spacing:0px;word-spacing:0px;fill:#000000;fill-opacity:1;stroke:none;stroke-width:6.69999981;stroke-linecap:round;stroke-linejoin:round;stroke-miterlimit:4;stroke-dasharray:160.799996, 160.799996;stroke-dashoffset:0;stroke-opacity:1"
       id="text821">
      <path
         d="m 133.07156,165.67799 q 3.07497,-3.51425 6.58923,-0.43928 3.51425,2.63569 1.31784,6.14994 -0.87856,1.75713 -2.19641,3.07497 -1.31784,0.87857 -2.1964,2.19641 l -16.25342,19.32839 q -6.14994,6.58922 -12.29989,13.17845 -5.71066,6.14994 -13.178444,10.98204 -14.935574,10.54276 -32.067556,10.98204 -10.982039,0.43928 -21.085516,-2.19641 -10.103476,-3.07497 -19.767671,-7.46779 -9.224914,-4.83209 -18.4498269,-10.54276 -8.7856317,-6.14994 -17.5712631,-11.42132 -0.878564,-0.43928 -1.317845,-0.87856 -0.439282,-0.87856 -1.317845,0 l -1.757126,2.19641 -3.074971,3.95353 -7.028506,7.46779 q -7.028505,7.0285 -14.935574,12.29988 -8.785631,5.27138 -18.889108,8.34635 -9.664195,3.07497 -19.767671,2.63569 -8.785632,0 -16.6927,-3.07497 -7.467787,-3.51425 -12.299887,-10.98204 -5.27138,-7.46778 -6.14994,-16.6927 -0.43928,-9.66419 3.51425,-18.44982 4.39282,-8.78564 11.86061,-13.17845 7.467782,-4.8321 16.253414,-6.14994 9.224913,-1.75713 18.449827,-0.43929 9.664195,0.87857 17.571263,3.51426 5.271379,1.75712 10.103477,3.95353 5.271379,2.19641 10.103476,4.8321 l 10.103477,5.71066 q 0.878563,0.43928 1.317844,-0.87856 l 1.317845,-1.75713 2.63569,-4.39282 q 5.7106603,-8.78563 10.1034761,-18.01054 4.83209748,-9.6642 9.2249133,-19.32839 Q 14.465536,119.11414 22.372604,97.589345 30.279673,75.625266 39.065305,54.100468 22.372604,56.736158 5.2406224,57.17544 -11.891359,57.614721 -28.58406,54.100468 q -8.34635,-1.757126 -16.253418,-4.392815 -7.907069,-3.074971 -15.374856,-7.907069 -3.514253,-2.196408 -6.589224,-5.271379 -2.635689,-3.514253 -4.392815,-7.467787 -0.878564,-2.196408 -1.757127,-5.710661 -0.878563,-3.953534 1.317845,-6.149942 3.514253,-3.953534 7.467787,0 1.317845,1.757127 0.878563,3.953535 0,1.757126 0.878563,3.953534 1.757127,3.514253 4.832098,6.149942 3.514252,2.63569 7.028505,4.832097 7.467787,3.953535 15.374856,6.149943 7.907068,1.757126 15.814137,3.074971 10.5427577,1.757126 21.0855158,1.757126 10.5427582,0 21.5247972,-0.878563 l 11.860603,-1.317845 5.710661,-0.878563 q 0.878563,0 1.317845,0 0.439281,-0.439282 1.317844,-0.439282 l 1.317845,-2.635689 Q 48.729499,31.257826 54.000878,21.15435 61.468665,5.3402125 72.450705,-9.1560799 83.432745,-24.091654 101.00401,-30.241596 q 7.0285,-2.196408 14.49629,-2.196408 7.46779,0 13.61773,4.832098 5.71066,4.832097 6.58922,12.299884 0.87857,7.0285053 -1.31784,13.6177291 -3.07497,9.2249133 -9.22491,16.2534189 -5.71067,7.028505 -13.61773,12.739166 -7.46779,5.71066 -16.253422,10.103476 -8.785632,3.953534 -17.131982,7.028506 -10.98204,3.953534 -21.524798,6.589223 l -6.149942,1.317845 -1.757127,5.271379 q -1.317844,2.196408 -2.635689,4.832098 -0.878563,2.635689 -1.757126,5.271379 L 27.643983,111.64636 q -8.34635,20.64623 -17.131982,40.4139 -8.7856312,19.76767 -21.085516,38.2175 7.9070689,4.8321 15.8141374,9.66419 7.9070686,4.8321 16.2534186,9.6642 9.224913,4.8321 19.32839,8.34635 10.103476,3.51425 20.646234,3.51425 18.010545,-0.43928 32.506838,-13.17844 7.907067,-6.14995 14.496297,-14.05702 7.0285,-7.90706 13.61772,-15.81413 z m -190.208923,54.47092 q 10.103477,-3.95354 18.010545,-11.42132 7.907069,-7.46779 14.496293,-15.81414 -8.785632,-5.27138 -17.131982,-9.22491 -9.224914,-4.39282 -19.767672,-7.02851 -10.542758,-2.63569 -20.646234,-0.87856 -7.907069,1.31784 -14.935574,6.14994 -6.589223,4.39282 -9.224913,12.29988 -2.63569,8.78564 0.43928,17.13199 3.51425,8.34635 11.860604,11.8606 8.785632,3.95353 18.449827,2.19641 10.103476,-1.75713 18.449826,-5.27138 z M 97.050474,-17.941712 q -7.028506,3.514253 -12.299885,9.6641953 -5.271379,5.7106606 -10.103476,12.2998844 -5.710661,8.7856313 -10.542758,18.0105453 -4.392816,9.224913 -8.785632,18.889108 10.103477,-2.63569 19.767672,-6.149942 10.103476,-3.514253 18.889108,-8.34635 7.467787,-3.953535 14.496297,-9.224914 7.0285,-5.271379 11.8606,-12.2998841 3.07497,-4.83209746 5.27138,-10.9820397 2.1964,-6.5892242 -1.31785,-11.8606032 -2.19641,-3.514252 -5.71066,-4.392815 -3.51425,-0.878564 -7.46779,-0.439282 -3.95353,0.439282 -7.90706,2.196408 -3.514257,1.317845 -6.149946,2.635689 z"
         style="fill:#000000;fill-opacity:1;stroke:none;stroke-width:6.69999981;stroke-linecap:round;stroke-linejoin:round;stroke-miterlimit:4;stroke-dasharray:160.799996, 160.799996;stroke-dashoffset:0;stroke-opacity:1"
         id="path831"
         inkscape:connector-curvature="0" />
    </g>
  </g>
  <g
     style="display:none"
     inkscape:label="Layer 1 copy copy"
     inkscape:groupmode="layer"
     id="g829"
     sodipodi:insensitive="true">
    <path
       sodipodi:type="inkscape:offset"
       inkscape:radius="0"
       inkscape:original="M -202.05859 -72.275391 C -222.29091 -72.203141 -238.97628 -56.747933 -248.5625 -39.951172 C -257.39935 -26.676474 -263.20065 -11.609314 -270.54297 2.3632812 C -279.24151 6.5133976 -289.3293 5.1496009 -298.62695 6.734375 C -323.74443 8.0808517 -350.66387 6.6870548 -372.80078 -6.4589844 C -379.32369 -10.231962 -384.05027 -17.243653 -384.53516 -24.544922 C -387.9776 -22.127431 -384.36092 -17.429676 -383.44336 -14.410156 C -375.42542 -1.8247773 -359.76842 2.6770235 -346.0918 6.0605469 C -323.46179 11.26165 -299.99559 9.2592211 -277.3125 6.5371094 C -271.17077 9.5276513 -275.7164 16.666944 -277.88281 20.820312 C -293.77244 62.434053 -307.32513 105.76507 -332.18945 143.19336 C -338.25639 147.65743 -343.52141 139.76207 -349.01367 138.04688 C -368.73719 127.46715 -394.12028 120.96999 -415.04102 131.58984 C -430.96906 140.28049 -435.12054 163.77882 -423.18359 177.41602 C -416.26585 186.75774 -403.95113 188.59284 -393.11328 187.61133 C -373.08483 186.24018 -354.90692 174.34556 -342.02344 159.375 C -339.27446 155.44342 -335.36498 147.84973 -329.47852 151.58203 C -305.97628 167.04185 -280.55806 185.75269 -251.00391 183.19727 C -231.32747 181.39752 -215.34458 168.08903 -203.14258 153.54688 C -194.94149 144.22853 -186.69581 134.67826 -179.00391 125.10156 C -181.17674 121.95833 -182.53428 127.78293 -184.38672 128.61719 C -201.09657 147.42866 -216.06901 170.86573 -240.99805 179.43555 C -264.79173 186.43819 -288.91857 174.78201 -308.76953 162.46875 C -316.18482 157.6442 -324.71906 153.75707 -330.9082 147.53906 C -329.77464 139.31992 -322.49279 133.7058 -319.69141 126.06641 C -300.03117 89.858404 -287.6431 50.385335 -272.02734 12.351562 C -270.37065 8.3814393 -268.66865 3.9521658 -263.50781 4.0488281 C -237.23214 -3.1479374 -208.69429 -12.280735 -191.93359 -35.333984 C -185.59865 -44.217336 -181.32333 -57.284291 -188.58008 -66.816406 C -191.94824 -70.536182 -197.07552 -72.500112 -202.05859 -72.275391 z M -201.08008 -70.832031 C -189.26624 -70.732541 -182.53653 -55.660497 -188.34375 -45.976562 C -197.27602 -23.5899 -220.99004 -12.545375 -242.18164 -4.6347656 C -248.84689 -2.9333602 -255.73177 1.1189906 -262.51758 0.38671875 C -268.22954 -3.6391449 -262.02056 -9.6366934 -260.65234 -14.179688 C -250.92059 -34.530515 -239.4501 -56.997735 -218.00195 -66.964844 C -212.70509 -69.470276 -206.96484 -70.983998 -201.08008 -70.832031 z M -391.21875 127.23633 C -372.23384 127.70969 -354.28504 136.26896 -338.72852 146.40039 C -335.7372 153.20018 -344.18767 157.10084 -347.21289 162.02539 C -361.17006 177.67199 -382.59368 187.09699 -403.58789 185.76758 C -417.24749 184.10345 -429.3951 171.96716 -428.37305 157.73828 C -428.39545 141.73821 -413.84991 129.54162 -398.73047 127.8457 C -396.24512 127.46423 -393.73266 127.26799 -391.21875 127.23633 z "
       xlink:href="#text827"
       style="font-style:normal;font-variant:normal;font-weight:normal;font-stretch:normal;font-size:439.28158569px;line-height:1.25;font-family:'Learning Curve';-inkscape-font-specification:'Learning Curve';letter-spacing:0px;word-spacing:0px;fill:#000000;fill-opacity:1;stroke:none;stroke-width:6.69999981;stroke-linecap:round;stroke-linejoin:round;stroke-miterlimit:4;stroke-dasharray:160.799996, 160.799996;stroke-dashoffset:0;stroke-opacity:1"
       id="path846"
       d="m -202.05859,-72.275391 c -20.23232,0.07225 -36.91769,15.527458 -46.50391,32.324219 -8.83685,13.274698 -14.63815,28.341858 -21.98047,42.3144532 -8.69854,4.1501164 -18.78633,2.7863197 -28.08398,4.3710938 -25.11748,1.3464767 -52.03692,-0.04732 -74.17383,-13.1933594 -6.52291,-3.7729776 -11.24949,-10.7846686 -11.73438,-18.0859376 -3.44244,2.417491 0.17424,7.115246 1.0918,10.134766 8.01794,12.5853787 23.67494,17.0871795 37.35156,20.4707029 22.63001,5.2011031 46.09621,3.1986742 68.7793,0.4765625 6.14173,2.9905419 1.5961,10.1298346 -0.57031,14.2832026 -15.88963,41.613741 -29.44232,84.944758 -54.30664,122.373048 -6.06694,4.46407 -11.33196,-3.43129 -16.82422,-5.14648 -19.72352,-10.57973 -45.10661,-17.07689 -66.02735,-6.45704 -15.92804,8.69065 -20.07952,32.18898 -8.14257,45.82618 6.91774,9.34172 19.23246,11.17682 30.07031,10.19531 20.02845,-1.37115 38.20636,-13.26577 51.08984,-28.23633 2.74898,-3.93158 6.65846,-11.52527 12.54492,-7.79297 23.50224,15.45982 48.92046,34.17066 78.47461,31.61524 19.67644,-1.79975 35.65933,-15.10824 47.86133,-29.65039 8.20109,-9.31835 16.44677,-18.86862 24.13867,-28.44532 -2.17283,-3.14323 -3.53037,2.68137 -5.38281,3.51563 -16.70985,18.81147 -31.68229,42.24854 -56.61133,50.81836 -23.79368,7.00264 -47.92052,-4.65354 -67.77148,-16.9668 -7.41529,-4.82455 -15.94953,-8.71168 -22.13867,-14.92969 1.13356,-8.21914 8.41541,-13.83326 11.21679,-21.47265 19.66024,-36.208006 32.04831,-75.681075 47.66407,-113.714848 1.65669,-3.9701227 3.35869,-8.3993962 8.51953,-8.3027339 26.27567,-7.1967655 54.81352,-16.3295631 71.57422,-39.3828121 6.33494,-8.883352 10.61026,-21.950307 3.35351,-31.482422 -3.36816,-3.719776 -8.49544,-5.683706 -13.47851,-5.458985 z m 0.97851,1.44336 c 11.81384,0.09949 18.54355,15.171534 12.73633,24.855469 -8.93227,22.386662 -32.64629,33.431187 -53.83789,41.3417964 -6.66525,1.7014054 -13.55013,5.7537562 -20.33594,5.02148435 -5.71196,-4.02586365 0.49702,-10.02341215 1.86524,-14.56640675 9.73175,-20.350827 21.20224,-42.818047 42.65039,-52.785156 5.29686,-2.505432 11.03711,-4.019154 16.92187,-3.867187 z M -391.21875,127.23633 c 18.98491,0.47336 36.93371,9.03263 52.49023,19.16406 2.99132,6.79979 -5.45915,10.70045 -8.48437,15.625 -13.95717,15.6466 -35.38079,25.0716 -56.375,23.74219 -13.6596,-1.66413 -25.80721,-13.80042 -24.78516,-28.0293 -0.0224,-16.00007 14.52314,-28.19666 29.64258,-29.89258 2.48535,-0.38147 4.99781,-0.57771 7.51172,-0.60937 z" />
    <path
       sodipodi:type="inkscape:offset"
       inkscape:radius="0"
       inkscape:original="M -202.05859 -72.275391 C -222.29091 -72.203141 -238.97628 -56.747933 -248.5625 -39.951172 C -257.39935 -26.676474 -263.20065 -11.609314 -270.54297 2.3632812 C -279.24151 6.5133975 -289.3293 5.1496009 -298.62695 6.734375 C -323.74443 8.0808517 -350.66387 6.6870548 -372.80078 -6.4589844 C -379.32369 -10.231962 -384.05027 -17.243653 -384.53516 -24.544922 C -387.9776 -22.127431 -384.36092 -17.429676 -383.44336 -14.410156 C -375.42542 -1.824777 -359.76842 2.6770235 -346.0918 6.0605469 C -323.46179 11.26165 -299.99559 9.2592211 -277.3125 6.5371094 C -271.17077 9.5276513 -275.7164 16.666943 -277.88281 20.820312 C -293.77244 62.434053 -307.32513 105.76507 -332.18945 143.19336 C -338.25639 147.65743 -343.52141 139.76207 -349.01367 138.04688 C -368.73719 127.46715 -394.12028 120.96999 -415.04102 131.58984 C -430.96906 140.28049 -435.12054 163.77882 -423.18359 177.41602 C -416.26585 186.75774 -403.95113 188.59284 -393.11328 187.61133 C -373.08483 186.24018 -354.90692 174.34556 -342.02344 159.375 C -339.27446 155.44342 -335.36498 147.84973 -329.47852 151.58203 C -305.97628 167.04185 -280.55806 185.75269 -251.00391 183.19727 C -231.32747 181.39752 -215.34458 168.08903 -203.14258 153.54688 C -194.94149 144.22853 -186.69581 134.67826 -179.00391 125.10156 C -181.17674 121.95833 -182.53428 127.78293 -184.38672 128.61719 C -201.09657 147.42866 -216.06901 170.86573 -240.99805 179.43555 C -264.79173 186.43819 -288.91857 174.78201 -308.76953 162.46875 C -316.18482 157.6442 -324.71906 153.75707 -330.9082 147.53906 C -329.77464 139.31992 -322.49279 133.7058 -319.69141 126.06641 C -300.03117 89.858408 -287.6431 50.385335 -272.02734 12.351562 C -270.37065 8.3814388 -268.66865 3.9521658 -263.50781 4.0488281 C -237.23214 -3.1479374 -208.69429 -12.280735 -191.93359 -35.333984 C -185.59865 -44.217336 -181.32333 -57.284291 -188.58008 -66.816406 C -191.94824 -70.536182 -197.07552 -72.500112 -202.05859 -72.275391 z M -201.08008 -70.832031 C -189.26624 -70.732541 -182.53653 -55.660497 -188.34375 -45.976562 C -197.27602 -23.5899 -220.99004 -12.545375 -242.18164 -4.6347656 C -248.84689 -2.9333602 -255.73177 1.1189906 -262.51758 0.38671875 C -268.22954 -3.6391449 -262.02056 -9.6366939 -260.65234 -14.179688 C -250.92059 -34.530516 -239.4501 -56.997735 -218.00195 -66.964844 C -212.70509 -69.470276 -206.96484 -70.983998 -201.08008 -70.832031 z M -391.21875 127.23633 C -372.23384 127.70969 -354.28504 136.26896 -338.72852 146.40039 C -335.7372 153.20018 -344.18767 157.10084 -347.21289 162.02539 C -361.17006 177.67199 -382.59368 187.09699 -403.58789 185.76758 C -417.24749 184.10345 -429.3951 171.96716 -428.37305 157.73828 C -428.39545 141.73821 -413.84991 129.54162 -398.73047 127.8457 C -396.24512 127.46423 -393.73266 127.26799 -391.21875 127.23633 z "
       style="font-style:normal;font-variant:normal;font-weight:normal;font-stretch:normal;font-size:439.28158569px;line-height:1.25;font-family:'Learning Curve';-inkscape-font-specification:'Learning Curve';letter-spacing:0px;word-spacing:0px;fill:#000000;fill-opacity:1;stroke:none;stroke-width:6.69999981;stroke-linecap:round;stroke-linejoin:round;stroke-miterlimit:4;stroke-dasharray:160.799996, 160.799996;stroke-dashoffset:0;stroke-opacity:1"
       id="text827"
       d="m -202.05859,-72.275391 c -20.23232,0.07225 -36.91769,15.527458 -46.50391,32.324219 -8.83685,13.274698 -14.63815,28.341858 -21.98047,42.3144532 -8.69854,4.1501163 -18.78633,2.7863197 -28.08398,4.3710938 -25.11748,1.3464767 -52.03692,-0.04732 -74.17383,-13.1933594 -6.52291,-3.7729776 -11.24949,-10.7846686 -11.73438,-18.0859376 -3.44244,2.417491 0.17424,7.115246 1.0918,10.134766 8.01794,12.585379 23.67494,17.0871795 37.35156,20.4707029 22.63001,5.2011031 46.09621,3.1986742 68.7793,0.4765625 6.14173,2.9905419 1.5961,10.1298336 -0.57031,14.2832026 -15.88963,41.613741 -29.44232,84.944758 -54.30664,122.373048 -6.06694,4.46407 -11.33196,-3.43129 -16.82422,-5.14648 -19.72352,-10.57973 -45.10661,-17.07689 -66.02735,-6.45704 -15.92804,8.69065 -20.07952,32.18898 -8.14257,45.82618 6.91774,9.34172 19.23246,11.17682 30.07031,10.19531 20.02845,-1.37115 38.20636,-13.26577 51.08984,-28.23633 2.74898,-3.93158 6.65846,-11.52527 12.54492,-7.79297 23.50224,15.45982 48.92046,34.17066 78.47461,31.61524 19.67644,-1.79975 35.65933,-15.10824 47.86133,-29.65039 8.20109,-9.31835 16.44677,-18.86862 24.13867,-28.44532 -2.17283,-3.14323 -3.53037,2.68137 -5.38281,3.51563 -16.70985,18.81147 -31.68229,42.24854 -56.61133,50.81836 -23.79368,7.00264 -47.92052,-4.65354 -67.77148,-16.9668 -7.41529,-4.82455 -15.94953,-8.71168 -22.13867,-14.92969 1.13356,-8.21914 8.41541,-13.83326 11.21679,-21.47265 19.66024,-36.208002 32.04831,-75.681075 47.66407,-113.714848 1.65669,-3.9701232 3.35869,-8.3993962 8.51953,-8.3027339 26.27567,-7.1967655 54.81352,-16.3295631 71.57422,-39.3828121 6.33494,-8.883352 10.61026,-21.950307 3.35351,-31.482422 -3.36816,-3.719776 -8.49544,-5.683706 -13.47851,-5.458985 z m 0.97851,1.44336 c 11.81384,0.09949 18.54355,15.171534 12.73633,24.855469 -8.93227,22.386662 -32.64629,33.431187 -53.83789,41.3417964 -6.66525,1.7014054 -13.55013,5.7537562 -20.33594,5.02148435 -5.71196,-4.02586365 0.49702,-10.02341265 1.86524,-14.56640675 9.73175,-20.350828 21.20224,-42.818047 42.65039,-52.785156 5.29686,-2.505432 11.03711,-4.019154 16.92187,-3.867187 z M -391.21875,127.23633 c 18.98491,0.47336 36.93371,9.03263 52.49023,19.16406 2.99132,6.79979 -5.45915,10.70045 -8.48437,15.625 -13.95717,15.6466 -35.38079,25.0716 -56.375,23.74219 -13.6596,-1.66413 -25.80721,-13.80042 -24.78516,-28.0293 -0.0224,-16.00007 14.52314,-28.19666 29.64258,-29.89258 2.48535,-0.38147 4.99781,-0.57771 7.51172,-0.60937 z" />
  </g>
  <g
     id="g844"
     inkscape:groupmode="layer"
     inkscape:label="Layer 1 copy copy copy"
     style="display:inline">
    <text
       id="text842"
       y="216.21654"
       x="137.03831"
       style="font-style:normal;font-variant:normal;font-weight:normal;font-stretch:normal;font-size:439.28158569px;line-height:1.25;font-family:'Learning Curve';-inkscape-font-specification:'Learning Curve';letter-spacing:0px;word-spacing:0px;fill:#000000;fill-opacity:1;stroke:none;stroke-width:6.69999981;stroke-linecap:round;stroke-linejoin:round;stroke-miterlimit:4;stroke-dasharray:160.799996, 160.799996;stroke-dashoffset:0;stroke-opacity:1"
       xml:space="preserve"><tspan
         style="fill:#000000;fill-opacity:1;stroke:none;stroke-width:6.69999981;stroke-linecap:round;stroke-linejoin:round;stroke-miterlimit:4;stroke-dasharray:160.799996, 160.799996;stroke-dashoffset:0;stroke-opacity:1"
         y="216.21654"
         x="137.03831"
         id="tspan840"
         sodipodi:role="line">L</tspan></text>
    <path
       style="opacity:0.40400002;fill:none;stroke:#fa0000;stroke-width:10.26500034;stroke-linecap:round;stroke-linejoin:round;stroke-miterlimit:0;stroke-dasharray:0, 41.79500136;stroke-dashoffset:41.06000137;stroke-opacity:1;paint-order:normal"
       d="m -382.41848,-24.544922 c 0,27.8094929 58.80772,41.308044 113.99219,29.0463594 0,0 80.54656,-15.0910564 81.34837,-61.5959544 0.12462,-7.227951 -2.93811,-18.88504 -16.039,-18.88504 -37.68228,0 -52.52516,54.450151 -67.42604,80.4809944 -14.90089,26.0308436 -29.92964,107.3249126 -64.71198,154.0367326 -16.80452,22.56806 -40.34474,38.10126 -72.95772,38.10126 -21.78204,0 -26.51039,-18.44543 -26.51039,-28.84698 0,-20.81438 19.04383,-31.61855 37.15432,-30.50195 18.11046,1.1166 37.58838,6.59447 62.31379,20.86969 18.96675,10.95046 53.42194,34.94868 78.67063,35.03716 23.42181,0.0821 65.90683,-34.68539 79.69707,-58.57079"
       id="path872"
       inkscape:connector-curvature="0"
       sodipodi:nodetypes="ccssssscscsc" />
  </g>
  <g
     style="display:inline"
     inkscape:label="Layer 1 copy copy copy copy"
     inkscape:groupmode="layer"
     id="g1252">
    <text
       xml:space="preserve"
       style="font-style:normal;font-variant:normal;font-weight:normal;font-stretch:normal;font-size:439.28158569px;line-height:1.25;font-family:'Learning Curve';-inkscape-font-specification:'Learning Curve';letter-spacing:0px;word-spacing:0px;fill:#000000;fill-opacity:1;stroke:none;stroke-width:6.69999981;stroke-linecap:round;stroke-linejoin:round;stroke-miterlimit:4;stroke-dasharray:160.799996, 160.799996;stroke-dashoffset:0;stroke-opacity:1"
       x="137.03831"
       y="216.21654"
       id="text1248"><tspan
         sodipodi:role="line"
         id="tspan1246"
         x="137.03831"
         y="216.21654"
         style="fill:#000000;fill-opacity:1;stroke:none;stroke-width:6.69999981;stroke-linecap:round;stroke-linejoin:round;stroke-miterlimit:4;stroke-dasharray:160.799996, 160.799996;stroke-dashoffset:0;stroke-opacity:1">L</tspan></text>
    <path
       sodipodi:nodetypes="ccssssscscszssccssscsc"
       inkscape:connector-curvature="0"
       id="path1250"
       d="m -914.43756,4.6545781 c 0,27.8094899 58.80772,41.3080399 113.99219,29.0463599 0,0 80.54656,-15.09106 81.34837,-61.59596 0.12462,-7.22795 -2.93811,-18.88504 -16.039,-18.88504 -37.68228,0 -52.52516,54.4501501 -67.42604,80.481 -14.90089,26.03084 -29.92964,107.324912 -64.71198,154.036732 -16.80452,22.56806 -40.34474,38.10126 -72.95772,38.10126 -21.78204,0 -26.51039,-18.44543 -26.51039,-28.84698 0,-20.81438 19.04383,-31.61855 37.15432,-30.50195 18.11046,1.1166 37.58838,6.59447 62.31379,20.86969 18.96675,10.95046 53.42194,34.94868 78.67063,35.03716 23.42181,0.0821 51.92381,-29.73343 79.69707,-58.57079 27.77326,-28.83736 106.74146,-93.832242 62.77418,-169.8295019 -11.70988,-20.2404901 -24.10033,-40.3274001 -40.94755,-57.1745801 -40.41517,-40.415058 -95.22984,-63.119968 -152.38542,-63.119918 h -10e-5 c -57.15551,8e-5 -111.97003,22.70506 -152.38508,63.120108 -40.41501,40.41505 -63.12001,95.22957 -63.12011,152.38508 0,57.155582 22.7049,111.970262 63.11992,152.385412 40.41506,40.41516 95.22968,63.12022 152.38527,63.1203 52.61578,-0.0443 103.39757,-19.33612 142.77109,-54.2381 23.39227,-20.73567 41.7975,-46.13006 54.21761,-74.28139"
       style="opacity:0.40400002;fill:none;stroke:#fa0000;stroke-width:10.26500034;stroke-linecap:round;stroke-linejoin:round;stroke-miterlimit:0;stroke-dasharray:0, 41.79500136;stroke-dashoffset:41.06000137;stroke-opacity:1;paint-order:normal" />
  </g>
</svg>
